{
    "guilds":{
        "id": null,
        "secrets": {
            "twitch": null,
            "youtube": null
        },
        "connections":{
            "twitch": [],
            "youtube": []
        }
    },
    "twitch": {
        "name": null,
        "display_name": null,
        "id": null,
        "connections": {},
        "followers": 0,
        "views": 0 
    },
    "youtube": {
        "username": null,
        "id": null,
        "connections": {},
        "subscribers": null,
        "views": null,
        "videos": null,
        "comments": null
    }
}